{
    "total_results": 386,
    "current_page": 1,
    "per_page": 25,
    "total_pages": 16,
    "results": [
        {
            "id": 677510,
            "name": null,
            "slug": "mike-cruz",
            "url": "https:\/\/imvdb.com\/n\/mike-cruz",
            "discogs_id": 61556,
            "byline": null,
            "bio": null,
            "image": "https:\/\/imvdb.com\/",
            "artist_video_count": 0,
            "featured_video_count": 0
        },
        {
            "id": 838673,
            "name": null,
            "slug": "robin-thicke",
            "url": "https:\/\/imvdb.com\/n\/robin-thicke",
            "discogs_id": 292681,
            "byline": null,
            "bio": null,
            "image": "https:\/\/imvdb.com\/",
            "artist_video_count": 4,
            "featured_video_count": 0
        },
        {
            "id": 2909657,
            "name": null,
            "slug": "lisa-katnic",
            "url": "https:\/\/imvdb.com\/n\/lisa-katnic",
            "discogs_id": null,
            "byline": null,
            "bio": null,
            "image": "https:\/\/imvdb.com\/",
            "artist_video_count": 0,
            "featured_video_count": 0
        },
        {
            "id": 3009760,
            "name": null,
            "slug": "evan-thicke",
            "url": "https:\/\/imvdb.com\/n\/evan-thicke",
            "discogs_id": null,
            "byline": null,
            "bio": null,
            "image": "https:\/\/imvdb.com\/",
            "artist_video_count": 0,
            "featured_video_count": 0
        },
        {
            "id": 874991,
            "name": null,
            "slug": "alan-thicke",
            "url": "https:\/\/imvdb.com\/n\/alan-thicke",
            "discogs_id": 337640,
            "byline": null,
            "bio": null,
            "image": "https:\/\/imvdb.com\/",
            "artist_video_count": 0,
            "featured_video_count": 0
        },
        {
            "id": 1077467,
            "name": null,
            "slug": "robin-george",
            "url": "https:\/\/imvdb.com\/n\/robin-george",
            "discogs_id": 585672,
            "byline": null,
            "bio": null,
            "image": "https:\/\/imvdb.com\/",
            "artist_video_count": 0,
            "featured_video_count": 0
        },
        {
            "id": 861958,
            "name": null,
            "slug": "robin-lumley",
            "url": "https:\/\/imvdb.com\/n\/robin-lumley",
            "discogs_id": 321621,
            "byline": null,
            "bio": null,
            "image": "https:\/\/imvdb.com\/",
            "artist_video_count": 0,
            "featured_video_count": 0
        },
        {
            "id": 1080970,
            "name": null,
            "slug": "robin-crafoord",
            "url": "https:\/\/imvdb.com\/n\/robin-crafoord",
            "discogs_id": 589942,
            "byline": null,
            "bio": null,
            "image": "https:\/\/imvdb.com\/",
            "artist_video_count": 0,
            "featured_video_count": 0
        },
        {
            "id": 820078,
            "name": null,
            "slug": "robin-dimaggio",
            "url": "https:\/\/imvdb.com\/n\/robin-dimaggio",
            "discogs_id": 269911,
            "byline": null,
            "bio": null,
            "image": "https:\/\/imvdb.com\/",
            "artist_video_count": 0,
            "featured_video_count": 0
        },
        {
            "id": 934993,
            "name": null,
            "slug": "robin-mcbride",
            "url": "https:\/\/imvdb.com\/n\/robin-mcbride",
            "discogs_id": 411256,
            "byline": null,
            "bio": null,
            "image": "https:\/\/imvdb.com\/",
            "artist_video_count": 0,
            "featured_video_count": 0
        },
        {
            "id": 2994442,
            "name": null,
            "slug": "robin-siegenthaler",
            "url": "https:\/\/imvdb.com\/n\/robin-siegenthaler",
            "discogs_id": null,
            "byline": null,
            "bio": null,
            "image": "https:\/\/imvdb.com\/",
            "artist_video_count": 0,
            "featured_video_count": 0
        },
        {
            "id": 2996368,
            "name": null,
            "slug": "robin-carlsson",
            "url": "https:\/\/imvdb.com\/n\/robin-carlsson",
            "discogs_id": null,
            "byline": null,
            "bio": null,
            "image": "https:\/\/imvdb.com\/",
            "artist_video_count": 0,
            "featured_video_count": 0
        },
        {
            "id": 2997278,
            "name": null,
            "slug": "robin-crowley",
            "url": "https:\/\/imvdb.com\/n\/robin-crowley",
            "discogs_id": null,
            "byline": null,
            "bio": null,
            "image": "https:\/\/imvdb.com\/",
            "artist_video_count": 0,
            "featured_video_count": 0
        },
        {
            "id": 980580,
            "name": null,
            "slug": "robin-fox-2",
            "url": "https:\/\/imvdb.com\/n\/robin-fox-2",
            "discogs_id": 466462,
            "byline": null,
            "bio": null,
            "image": "https:\/\/imvdb.com\/",
            "artist_video_count": 0,
            "featured_video_count": 0
        },
        {
            "id": 1067183,
            "name": null,
            "slug": "patrick-l.-robin",
            "url": "https:\/\/imvdb.com\/n\/patrick-l.-robin",
            "discogs_id": 572942,
            "byline": null,
            "bio": null,
            "image": "https:\/\/imvdb.com\/",
            "artist_video_count": 0,
            "featured_video_count": 0
        },
        {
            "id": 926048,
            "name": null,
            "slug": "robin-imamshah",
            "url": "https:\/\/imvdb.com\/n\/robin-imamshah",
            "discogs_id": 400581,
            "byline": null,
            "bio": null,
            "image": "https:\/\/imvdb.com\/",
            "artist_video_count": 0,
            "featured_video_count": 0
        },
        {
            "id": 809296,
            "name": null,
            "slug": "robin-casinader",
            "url": "https:\/\/imvdb.com\/n\/robin-casinader",
            "discogs_id": 256749,
            "byline": null,
            "bio": null,
            "image": "https:\/\/imvdb.com\/",
            "artist_video_count": 0,
            "featured_video_count": 0
        },
        {
            "id": 795728,
            "name": null,
            "slug": "robin-finck",
            "url": "https:\/\/imvdb.com\/n\/robin-finck",
            "discogs_id": 239543,
            "byline": null,
            "bio": null,
            "image": "https:\/\/imvdb.com\/",
            "artist_video_count": 0,
            "featured_video_count": 0
        },
        {
            "id": 3004625,
            "name": null,
            "slug": "robin-packalen",
            "url": "https:\/\/imvdb.com\/n\/robin-packalen",
            "discogs_id": null,
            "byline": null,
            "bio": null,
            "image": "https:\/\/imvdb.com\/",
            "artist_video_count": 0,
            "featured_video_count": 0
        },
        {
            "id": 826448,
            "name": null,
            "slug": "robin-geoffrey-cable",
            "url": "https:\/\/imvdb.com\/n\/robin-geoffrey-cable",
            "discogs_id": 277713,
            "byline": null,
            "bio": null,
            "image": "https:\/\/imvdb.com\/",
            "artist_video_count": 0,
            "featured_video_count": 0
        },
        {
            "id": 3009063,
            "name": null,
            "slug": "robin-huckstadt",
            "url": "https:\/\/imvdb.com\/n\/robin-huckstadt",
            "discogs_id": null,
            "byline": null,
            "bio": null,
            "image": "https:\/\/imvdb.com\/",
            "artist_video_count": 0,
            "featured_video_count": 0
        },
        {
            "id": 775143,
            "name": null,
            "slug": "robin-saville",
            "url": "https:\/\/imvdb.com\/n\/robin-saville",
            "discogs_id": 211238,
            "byline": null,
            "bio": null,
            "image": "https:\/\/imvdb.com\/",
            "artist_video_count": 0,
            "featured_video_count": 0
        },
        {
            "id": 2995300,
            "name": null,
            "slug": "robin-groulx",
            "url": "https:\/\/imvdb.com\/n\/robin-groulx",
            "discogs_id": null,
            "byline": null,
            "bio": null,
            "image": "https:\/\/imvdb.com\/",
            "artist_video_count": 0,
            "featured_video_count": 0
        },
        {
            "id": 3001798,
            "name": null,
            "slug": "robin-taylor",
            "url": "https:\/\/imvdb.com\/n\/robin-taylor",
            "discogs_id": null,
            "byline": null,
            "bio": null,
            "image": "https:\/\/imvdb.com\/",
            "artist_video_count": 0,
            "featured_video_count": 0
        },
        {
            "id": 3003682,
            "name": null,
            "slug": "robin-lachenal",
            "url": "https:\/\/imvdb.com\/n\/robin-lachenal",
            "discogs_id": null,
            "byline": null,
            "bio": null,
            "image": "https:\/\/imvdb.com\/",
            "artist_video_count": 0,
            "featured_video_count": 0
        }
    ]
}